%YAML 1.1
%TAG !u! tag:unity3d.com,2011:
--- !u!29 &1
OcclusionCullingSettings:
  m_ObjectHideFlags: 0
  serializedVersion: 2
  m_OcclusionBakeSettings:
    smallestOccluder: 5
    smallestHole: 0.25
    backfaceThreshold: 100
  m_SceneGUID: 00000000000000000000000000000000
  m_OcclusionCullingData: {fileID: 0}
--- !u!104 &2
RenderSettings:
  m_ObjectHideFlags: 0
  serializedVersion: 9
  m_Fog: 0
  m_FogColor: {r: 0.5, g: 0.5, b: 0.5, a: 1}
  m_FogMode: 3
  m_FogDensity: 0.01
  m_LinearFogStart: 0
  m_LinearFogEnd: 300
  m_AmbientSkyColor: {r: 0.212, g: 0.227, b: 0.259, a: 1}
  m_AmbientEquatorColor: {r: 0.114, g: 0.125, b: 0.133, a: 1}
  m_AmbientGroundColor: {r: 0.047, g: 0.043, b: 0.035, a: 1}
  m_AmbientIntensity: 1
  m_AmbientMode: 3
  m_SubtractiveShadowColor: {r: 0.42, g: 0.478, b: 0.627, a: 1}
  m_SkyboxMaterial: {fileID: 0}
  m_HaloStrength: 0.5
  m_FlareStrength: 1
  m_FlareFadeSpeed: 3
  m_HaloTexture: {fileID: 0}
  m_SpotCookie: {fileID: 10001, guid: 0000000000000000e000000000000000, type: 0}
  m_DefaultReflectionMode: 0
  m_DefaultReflectionResolution: 128
  m_ReflectionBounces: 1
  m_ReflectionIntensity: 1
  m_CustomReflection: {fileID: 0}
  m_Sun: {fileID: 0}
  m_IndirectSpecularColor: {r: 0, g: 0, b: 0, a: 1}
  m_UseRadianceAmbientProbe: 0
--- !u!157 &3
LightmapSettings:
  m_ObjectHideFlags: 0
  serializedVersion: 11
  m_GIWorkflowMode: 1
  m_GISettings:
    serializedVersion: 2
    m_BounceScale: 1
    m_IndirectOutputScale: 1
    m_AlbedoBoost: 1
    m_TemporalCoherenceThreshold: 1
    m_EnvironmentLightingMode: 0
    m_EnableBakedLightmaps: 0
    m_EnableRealtimeLightmaps: 0
  m_LightmapEditorSettings:
    serializedVersion: 10
    m_Resolution: 2
    m_BakeResolution: 40
    m_AtlasSize: 1024
    m_AO: 0
    m_AOMaxDistance: 1
    m_CompAOExponent: 1
    m_CompAOExponentDirect: 0
    m_Padding: 2
    m_LightmapParameters: {fileID: 0}
    m_LightmapsBakeMode: 1
    m_TextureCompression: 1
    m_FinalGather: 0
    m_FinalGatherFiltering: 1
    m_FinalGatherRayCount: 256
    m_ReflectionCompression: 2
    m_MixedBakeMode: 2
    m_BakeBackend: 0
    m_PVRSampling: 1
    m_PVRDirectSampleCount: 32
    m_PVRSampleCount: 500
    m_PVRBounces: 2
    m_PVRFilterTypeDirect: 0
    m_PVRFilterTypeIndirect: 0
    m_PVRFilterTypeAO: 0
    m_PVRFilteringMode: 1
    m_PVRCulling: 1
    m_PVRFilteringGaussRadiusDirect: 1
    m_PVRFilteringGaussRadiusIndirect: 5
    m_PVRFilteringGaussRadiusAO: 2
    m_PVRFilteringAtrousPositionSigmaDirect: 0.5
    m_PVRFilteringAtrousPositionSigmaIndirect: 2
    m_PVRFilteringAtrousPositionSigmaAO: 1
    m_ShowResolutionOverlay: 1
  m_LightingDataAsset: {fileID: 0}
  m_UseShadowmask: 1
--- !u!196 &4
NavMeshSettings:
  serializedVersion: 2
  m_ObjectHideFlags: 0
  m_BuildSettings:
    serializedVersion: 2
    agentTypeID: 0
    agentRadius: 0.5
    agentHeight: 2
    agentSlope: 45
    agentClimb: 0.4
    ledgeDropHeight: 0
    maxJumpAcrossDistance: 0
    minRegionArea: 2
    manualCellSize: 0
    cellSize: 0.16666667
    manualTileSize: 0
    tileSize: 256
    accuratePlacement: 0
    debug:
      m_Flags: 0
  m_NavMeshData: {fileID: 0}
--- !u!1 &7728041
GameObject:
  m_ObjectHideFlags: 0
  m_CorrespondingSourceObject: {fileID: 0}
  m_PrefabInternal: {fileID: 0}
  serializedVersion: 6
  m_Component:
  - component: {fileID: 7728042}
  m_Layer: 5
  m_Name: Handle Slide Area
  m_TagString: Untagged
  m_Icon: {fileID: 0}
  m_NavMeshLayer: 0
  m_StaticEditorFlags: 0
  m_IsActive: 1
--- !u!224 &7728042
RectTransform:
  m_ObjectHideFlags: 0
  m_CorrespondingSourceObject: {fileID: 0}
  m_PrefabInternal: {fileID: 0}
  m_GameObject: {fileID: 7728041}
  m_LocalRotation: {x: 0, y: 0, z: 0, w: 1}
  m_LocalPosition: {x: 0, y: 0, z: 0}
  m_LocalScale: {x: 1, y: 1, z: 1}
  m_Children:
  - {fileID: 1038011723}
  m_Father: {fileID: 1061368246}
  m_RootOrder: 2
  m_LocalEulerAnglesHint: {x: 0, y: 0, z: 0}
  m_AnchorMin: {x: 0, y: 0}
  m_AnchorMax: {x: 1, y: 1}
  m_AnchoredPosition: {x: 0, y: 0}
  m_SizeDelta: {x: -20, y: 0}
  m_Pivot: {x: 0.5, y: 0.5}
--- !u!1001 &46542700
Prefab:
  m_ObjectHideFlags: 0
  serializedVersion: 2
  m_Modification:
    m_TransformParent: {fileID: 1435997067}
    m_Modifications:
    - target: {fileID: 4337036896296062, guid: f4c6a7c4d2efa9842bcea267c87cbba5, type: 2}
      propertyPath: m_LocalPosition.x
      value: 8.4
      objectReference: {fileID: 0}
    - target: {fileID: 4337036896296062, guid: f4c6a7c4d2efa9842bcea267c87cbba5, type: 2}
      propertyPath: m_LocalPosition.y
      value: -8
      objectReference: {fileID: 0}
    - target: {fileID: 4337036896296062, guid: f4c6a7c4d2efa9842bcea267c87cbba5, type: 2}
      propertyPath: m_LocalPosition.z
      value: 1.3171759
      objectReference: {fileID: 0}
    - target: {fileID: 4337036896296062, guid: f4c6a7c4d2efa9842bcea267c87cbba5, type: 2}
      propertyPath: m_LocalRotation.x
      value: -0
      objectReference: {fileID: 0}
    - target: {fileID: 4337036896296062, guid: f4c6a7c4d2efa9842bcea267c87cbba5, type: 2}
      propertyPath: m_LocalRotation.y
      value: -0
      objectReference: {fileID: 0}
    - target: {fileID: 4337036896296062, guid: f4c6a7c4d2efa9842bcea267c87cbba5, type: 2}
      propertyPath: m_LocalRotation.z
      value: -0
      objectReference: {fileID: 0}
    - target: {fileID: 4337036896296062, guid: f4c6a7c4d2efa9842bcea267c87cbba5, type: 2}
      propertyPath: m_LocalRotation.w
      value: 1
      objectReference: {fileID: 0}
    - target: {fileID: 4337036896296062, guid: f4c6a7c4d2efa9842bcea267c87cbba5, type: 2}
      propertyPath: m_RootOrder
      value: 0
      objectReference: {fileID: 0}
    m_RemovedComponents: []
  m_SourcePrefab: {fileID: 100100000, guid: f4c6a7c4d2efa9842bcea267c87cbba5, type: 2}
  m_IsPrefabAsset: 0
--- !u!1001 &77196849
Prefab:
  m_ObjectHideFlags: 0
  serializedVersion: 2
  m_Modification:
    m_TransformParent: {fileID: 996062348}
    m_Modifications:
    - target: {fileID: 4856162994320406, guid: cc47a64e0f48e204aa6d7dc91b023fad, type: 2}
      propertyPath: m_LocalPosition.x
      value: 0.72
      objectReference: {fileID: 0}
    - target: {fileID: 4856162994320406, guid: cc47a64e0f48e204aa6d7dc91b023fad, type: 2}
      propertyPath: m_LocalPosition.y
      value: 0.94
      objectReference: {fileID: 0}
    - target: {fileID: 4856162994320406, guid: cc47a64e0f48e204aa6d7dc91b023fad, type: 2}
      propertyPath: m_LocalPosition.z
      value: 0
      objectReference: {fileID: 0}
    - target: {fileID: 4856162994320406, guid: cc47a64e0f48e204aa6d7dc91b023fad, type: 2}
      propertyPath: m_LocalRotation.x
      value: -0
      objectReference: {fileID: 0}
    - target: {fileID: 4856162994320406, guid: cc47a64e0f48e204aa6d7dc91b023fad, type: 2}
      propertyPath: m_LocalRotation.y
      value: -0
      objectReference: {fileID: 0}
    - target: {fileID: 4856162994320406, guid: cc47a64e0f48e204aa6d7dc91b023fad, type: 2}
      propertyPath: m_LocalRotation.z
      value: -0
      objectReference: {fileID: 0}
    - target: {fileID: 4856162994320406, guid: cc47a64e0f48e204aa6d7dc91b023fad, type: 2}
      propertyPath: m_LocalRotation.w
      value: 1
      objectReference: {fileID: 0}
    - target: {fileID: 4856162994320406, guid: cc47a64e0f48e204aa6d7dc91b023fad, type: 2}
      propertyPath: m_RootOrder
      value: 3
      objectReference: {fileID: 0}
    - target: {fileID: 1653430205233394, guid: cc47a64e0f48e204aa6d7dc91b023fad, type: 2}
      propertyPath: m_Name
      value: Road (3)
      objectReference: {fileID: 0}
    m_RemovedComponents: []
  m_SourcePrefab: {fileID: 100100000, guid: cc47a64e0f48e204aa6d7dc91b023fad, type: 2}
  m_IsPrefabAsset: 0
--- !u!4 &77196850 stripped
Transform:
  m_CorrespondingSourceObject: {fileID: 4856162994320406, guid: cc47a64e0f48e204aa6d7dc91b023fad,
    type: 2}
  m_PrefabInternal: {fileID: 77196849}
--- !u!1001 &98689888
Prefab:
  m_ObjectHideFlags: 0
  serializedVersion: 2
  m_Modification:
    m_TransformParent: {fileID: 1435997067}
    m_Modifications:
    - target: {fileID: 4337036896296062, guid: f4c6a7c4d2efa9842bcea267c87cbba5, type: 2}
      propertyPath: m_LocalPosition.x
      value: 8.4
      objectReference: {fileID: 0}
    - target: {fileID: 4337036896296062, guid: f4c6a7c4d2efa9842bcea267c87cbba5, type: 2}
      propertyPath: m_LocalPosition.y
      value: -8.9
      objectReference: {fileID: 0}
    - target: {fileID: 4337036896296062, guid: f4c6a7c4d2efa9842bcea267c87cbba5, type: 2}
      propertyPath: m_LocalPosition.z
      value: 1.3171759
      objectReference: {fileID: 0}
    - target: {fileID: 4337036896296062, guid: f4c6a7c4d2efa9842bcea267c87cbba5, type: 2}
      propertyPath: m_LocalRotation.x
      value: -0
      objectReference: {fileID: 0}
    - target: {fileID: 4337036896296062, guid: f4c6a7c4d2efa9842bcea267c87cbba5, type: 2}
      propertyPath: m_LocalRotation.y
      value: -0
      objectReference: {fileID: 0}
    - target: {fileID: 4337036896296062, guid: f4c6a7c4d2efa9842bcea267c87cbba5, type: 2}
      propertyPath: m_LocalRotation.z
      value: -0
      objectReference: {fileID: 0}
    - target: {fileID: 4337036896296062, guid: f4c6a7c4d2efa9842bcea267c87cbba5, type: 2}
      propertyPath: m_LocalRotation.w
      value: 1
      objectReference: {fileID: 0}
    - target: {fileID: 4337036896296062, guid: f4c6a7c4d2efa9842bcea267c87cbba5, type: 2}
      propertyPath: m_RootOrder
      value: 1
      objectReference: {fileID: 0}
    - target: {fileID: 1556020867057728, guid: f4c6a7c4d2efa9842bcea267c87cbba5, type: 2}
      propertyPath: m_Name
      value: Brick (1)
      objectReference: {fileID: 0}
    m_RemovedComponents: []
  m_SourcePrefab: {fileID: 100100000, guid: f4c6a7c4d2efa9842bcea267c87cbba5, type: 2}
  m_IsPrefabAsset: 0
--- !u!4 &157714329 stripped
Transform:
  m_CorrespondingSourceObject: {fileID: 4337036896296062, guid: f4c6a7c4d2efa9842bcea267c87cbba5,
    type: 2}
  m_PrefabInternal: {fileID: 1505746797}
--- !u!1 &270456569
GameObject:
  m_ObjectHideFlags: 0
  m_CorrespondingSourceObject: {fileID: 0}
  m_PrefabInternal: {fileID: 0}
  serializedVersion: 6
  m_Component:
  - component: {fileID: 270456570}
  - component: {fileID: 270456572}
  - component: {fileID: 270456571}
  m_Layer: 5
  m_Name: scoreText
  m_TagString: Untagged
  m_Icon: {fileID: 0}
  m_NavMeshLayer: 0
  m_StaticEditorFlags: 0
  m_IsActive: 1
--- !u!224 &270456570
RectTransform:
  m_ObjectHideFlags: 0
  m_CorrespondingSourceObject: {fileID: 0}
  m_PrefabInternal: {fileID: 0}
  m_GameObject: {fileID: 270456569}
  m_LocalRotation: {x: 0, y: 0, z: 0, w: 1}
  m_LocalPosition: {x: 0, y: 0, z: 0}
  m_LocalScale: {x: 1, y: 1, z: 1}
  m_Children: []
  m_Father: {fileID: 1838563187}
  m_RootOrder: 0
  m_LocalEulerAnglesHint: {x: 0, y: 0, z: 0}
  m_AnchorMin: {x: 1, y: 1}
  m_AnchorMax: {x: 1, y: 1}
  m_AnchoredPosition: {x: -110, y: -15}
  m_SizeDelta: {x: 220, y: 30}
  m_Pivot: {x: 0.5, y: 0.5}
--- !u!114 &270456571
MonoBehaviour:
  m_ObjectHideFlags: 0
  m_CorrespondingSourceObject: {fileID: 0}
  m_PrefabInternal: {fileID: 0}
  m_GameObject: {fileID: 270456569}
  m_Enabled: 1
  m_EditorHideFlags: 0
  m_Script: {fileID: 708705254, guid: f70555f144d8491a825f0804e09c671c, type: 3}
  m_Name: 
  m_EditorClassIdentifier: 
  m_Material: {fileID: 0}
  m_Color: {r: 1, g: 1, b: 1, a: 1}
  m_RaycastTarget: 1
  m_OnCullStateChanged:
    m_PersistentCalls:
      m_Calls: []
    m_TypeName: UnityEngine.UI.MaskableGraphic+CullStateChangedEvent, UnityEngine.UI,
      Version=1.0.0.0, Culture=neutral, PublicKeyToken=null
  m_FontData:
    m_Font: {fileID: 12800000, guid: cc03e96a4a6bc684fa33df48b91d1cf2, type: 3}
    m_FontSize: 30
    m_FontStyle: 1
    m_BestFit: 1
    m_MinSize: 3
    m_MaxSize: 40
    m_Alignment: 5
    m_AlignByGeometry: 1
    m_RichText: 0
    m_HorizontalOverflow: 1
    m_VerticalOverflow: 1
    m_LineSpacing: 1
  m_Text: score
--- !u!222 &270456572
CanvasRenderer:
  m_ObjectHideFlags: 0
  m_CorrespondingSourceObject: {fileID: 0}
  m_PrefabInternal: {fileID: 0}
  m_GameObject: {fileID: 270456569}
  m_CullTransparentMesh: 0
--- !u!1 &272939191
GameObject:
  m_ObjectHideFlags: 0
  m_CorrespondingSourceObject: {fileID: 0}
  m_PrefabInternal: {fileID: 0}
  serializedVersion: 6
  m_Component:
  - component: {fileID: 272939192}
  - component: {fileID: 272939194}
  - component: {fileID: 272939193}
  m_Layer: 5
  m_Name: Background
  m_TagString: Untagged
  m_Icon: {fileID: 0}
  m_NavMeshLayer: 0
  m_StaticEditorFlags: 0
  m_IsActive: 1
--- !u!224 &272939192
RectTransform:
  m_ObjectHideFlags: 0
  m_CorrespondingSourceObject: {fileID: 0}
  m_PrefabInternal: {fileID: 0}
  m_GameObject: {fileID: 272939191}
  m_LocalRotation: {x: 0, y: 0, z: 0, w: 1}
  m_LocalPosition: {x: 0, y: 0, z: 0}
  m_LocalScale: {x: 1, y: 1, z: 1}
  m_Children: []
  m_Father: {fileID: 1061368246}
  m_RootOrder: 0
  m_LocalEulerAnglesHint: {x: 0, y: 0, z: 0}
  m_AnchorMin: {x: 0, y: 0.25}
  m_AnchorMax: {x: 1, y: 0.75}
  m_AnchoredPosition: {x: 0, y: 0}
  m_SizeDelta: {x: 0, y: 0}
  m_Pivot: {x: 0.5, y: 0.5}
--- !u!114 &272939193
MonoBehaviour:
  m_ObjectHideFlags: 0
  m_CorrespondingSourceObject: {fileID: 0}
  m_PrefabInternal: {fileID: 0}
  m_GameObject: {fileID: 272939191}
  m_Enabled: 1
  m_EditorHideFlags: 0
  m_Script: {fileID: -765806418, guid: f70555f144d8491a825f0804e09c671c, type: 3}
  m_Name: 
  m_EditorClassIdentifier: 
  m_Material: {fileID: 0}
  m_Color: {r: 1, g: 1, b: 1, a: 1}
  m_RaycastTarget: 1
  m_OnCullStateChanged:
    m_PersistentCalls:
      m_Calls: []
    m_TypeName: UnityEngine.UI.MaskableGraphic+CullStateChangedEvent, UnityEngine.UI,
      Version=1.0.0.0, Culture=neutral, PublicKeyToken=null
  m_Sprite: {fileID: 10907, guid: 0000000000000000f000000000000000, type: 0}
  m_Type: 1
  m_PreserveAspect: 0
  m_FillCenter: 1
  m_FillMethod: 4
  m_FillAmount: 1
  m_FillClockwise: 1
  m_FillOrigin: 0
--- !u!222 &272939194
CanvasRenderer:
  m_ObjectHideFlags: 0
  m_CorrespondingSourceObject: {fileID: 0}
  m_PrefabInternal: {fileID: 0}
  m_GameObject: {fileID: 272939191}
  m_CullTransparentMesh: 0
--- !u!1001 &298238177
Prefab:
  m_ObjectHideFlags: 0
  serializedVersion: 2
  m_Modification:
    m_TransformParent: {fileID: 1435997067}
    m_Modifications:
    - target: {fileID: 4337036896296062, guid: f4c6a7c4d2efa9842bcea267c87cbba5, type: 2}
      propertyPath: m_LocalPosition.x
      value: 8.4
      objectReference: {fileID: 0}
    - target: {fileID: 4337036896296062, guid: f4c6a7c4d2efa9842bcea267c87cbba5, type: 2}
      propertyPath: m_LocalPosition.y
      value: -15.2
      objectReference: {fileID: 0}
    - target: {fileID: 4337036896296062, guid: f4c6a7c4d2efa9842bcea267c87cbba5, type: 2}
      propertyPath: m_LocalPosition.z
      value: 1.3171759
      objectReference: {fileID: 0}
    - target: {fileID: 4337036896296062, guid: f4c6a7c4d2efa9842bcea267c87cbba5, type: 2}
      propertyPath: m_LocalRotation.x
      value: -0
      objectReference: {fileID: 0}
    - target: {fileID: 4337036896296062, guid: f4c6a7c4d2efa9842bcea267c87cbba5, type: 2}
      propertyPath: m_LocalRotation.y
      value: -0
      objectReference: {fileID: 0}
    - target: {fileID: 4337036896296062, guid: f4c6a7c4d2efa9842bcea267c87cbba5, type: 2}
      propertyPath: m_LocalRotation.z
      value: -0
      objectReference: {fileID: 0}
    - target: {fileID: 4337036896296062, guid: f4c6a7c4d2efa9842bcea267c87cbba5, type: 2}
      propertyPath: m_LocalRotation.w
      value: 1
      objectReference: {fileID: 0}
    - target: {fileID: 4337036896296062, guid: f4c6a7c4d2efa9842bcea267c87cbba5, type: 2}
      propertyPath: m_RootOrder
      value: 8
      objectReference: {fileID: 0}
    - target: {fileID: 1556020867057728, guid: f4c6a7c4d2efa9842bcea267c87cbba5, type: 2}
      propertyPath: m_Name
      value: Brick (8)
      objectReference: {fileID: 0}
    m_RemovedComponents: []
  m_SourcePrefab: {fileID: 100100000, guid: f4c6a7c4d2efa9842bcea267c87cbba5, type: 2}
  m_IsPrefabAsset: 0
--- !u!4 &374849155 stripped
Transform:
  m_CorrespondingSourceObject: {fileID: 4337036896296062, guid: f4c6a7c4d2efa9842bcea267c87cbba5,
    type: 2}
  m_PrefabInternal: {fileID: 1958154336}
--- !u!1 &392462889
GameObject:
  m_ObjectHideFlags: 0
  m_CorrespondingSourceObject: {fileID: 0}
  m_PrefabInternal: {fileID: 0}
  serializedVersion: 6
  m_Component:
  - component: {fileID: 392462891}
  - component: {fileID: 392462890}
  - component: {fileID: 392462892}
  m_Layer: 0
  m_Name: GameController
  m_TagString: Untagged
  m_Icon: {fileID: 0}
  m_NavMeshLayer: 0
  m_StaticEditorFlags: 0
  m_IsActive: 1
--- !u!114 &392462890
MonoBehaviour:
  m_ObjectHideFlags: 0
  m_CorrespondingSourceObject: {fileID: 0}
  m_PrefabInternal: {fileID: 0}
  m_GameObject: {fileID: 392462889}
  m_Enabled: 1
  m_EditorHideFlags: 0
  m_Script: {fileID: 11500000, guid: bb1e29dfb29befc409495f69f43a69e1, type: 3}
  m_Name: 
  m_EditorClassIdentifier: 
  scoreText: {fileID: 270456571}
  healthSlider: {fileID: 1061368247}
--- !u!4 &392462891
Transform:
  m_ObjectHideFlags: 0
  m_CorrespondingSourceObject: {fileID: 0}
  m_PrefabInternal: {fileID: 0}
  m_GameObject: {fileID: 392462889}
  m_LocalRotation: {x: 0, y: 0, z: 0, w: 1}
  m_LocalPosition: {x: -0.036536217, y: 4.1089315, z: 0}
  m_LocalScale: {x: 1, y: 1, z: 1}
  m_Children: []
  m_Father: {fileID: 0}
  m_RootOrder: 4
  m_LocalEulerAnglesHint: {x: 0, y: 0, z: 0}
--- !u!82 &392462892
AudioSource:
  m_ObjectHideFlags: 0
  m_CorrespondingSourceObject: {fileID: 0}
  m_PrefabInternal: {fileID: 0}
  m_GameObject: {fileID: 392462889}
  m_Enabled: 1
  serializedVersion: 4
  OutputAudioMixerGroup: {fileID: 0}
  m_audioClip: {fileID: 8300000, guid: 622791c64fd906649a0e93417fa12d2f, type: 3}
  m_PlayOnAwake: 1
  m_Volume: 0.503
  m_Pitch: 1
  Loop: 1
  Mute: 0
  Spatialize: 0
  SpatializePostEffects: 0
  Priority: 128
  DopplerLevel: 1
  MinDistance: 1
  MaxDistance: 500
  Pan2D: 0
  rolloffMode: 0
  BypassEffects: 0
  BypassListenerEffects: 0
  BypassReverbZones: 0
  rolloffCustomCurve:
    serializedVersion: 2
    m_Curve:
    - serializedVersion: 3
      time: 0
      value: 1
      inSlope: 0
      outSlope: 0
      tangentMode: 0
      weightedMode: 0
      inWeight: 0.33333334
      outWeight: 0.33333334
    - serializedVersion: 3
      time: 1
      value: 0
      inSlope: 0
      outSlope: 0
      tangentMode: 0
      weightedMode: 0
      inWeight: 0.33333334
      outWeight: 0.33333334
    m_PreInfinity: 2
    m_PostInfinity: 2
    m_RotationOrder: 4
  panLevelCustomCurve:
    serializedVersion: 2
    m_Curve:
    - serializedVersion: 3
      time: 0
      value: 0
      inSlope: 0
      outSlope: 0
      tangentMode: 0
      weightedMode: 0
      inWeight: 0.33333334
      outWeight: 0.33333334
    m_PreInfinity: 2
    m_PostInfinity: 2
    m_RotationOrder: 4
  spreadCustomCurve:
    serializedVersion: 2
    m_Curve:
    - serializedVersion: 3
      time: 0
      value: 0
      inSlope: 0
      outSlope: 0
      tangentMode: 0
      weightedMode: 0
      inWeight: 0.33333334
      outWeight: 0.33333334
    m_PreInfinity: 2
    m_PostInfinity: 2
    m_RotationOrder: 4
  reverbZoneMixCustomCurve:
    serializedVersion: 2
    m_Curve:
    - serializedVersion: 3
      time: 0
      value: 1
      inSlope: 0
      outSlope: 0
      tangentMode: 0
      weightedMode: 0
      inWeight: 0.33333334
      outWeight: 0.33333334
    m_PreInfinity: 2
    m_PostInfinity: 2
    m_RotationOrder: 4
--- !u!4 &462127609 stripped
Transform:
  m_CorrespondingSourceObject: {fileID: 4337036896296062, guid: f4c6a7c4d2efa9842bcea267c87cbba5,
    type: 2}
  m_PrefabInternal: {fileID: 916795651}
--- !u!1 &519420028
GameObject:
  m_ObjectHideFlags: 0
  m_CorrespondingSourceObject: {fileID: 0}
  m_PrefabInternal: {fileID: 0}
  serializedVersion: 6
  m_Component:
  - component: {fileID: 519420032}
  - component: {fileID: 519420031}
  - component: {fileID: 519420029}
  m_Layer: 0
  m_Name: Main Camera
  m_TagString: MainCamera
  m_Icon: {fileID: 0}
  m_NavMeshLayer: 0
  m_StaticEditorFlags: 0
  m_IsActive: 1
--- !u!81 &519420029
AudioListener:
  m_ObjectHideFlags: 0
  m_CorrespondingSourceObject: {fileID: 0}
  m_PrefabInternal: {fileID: 0}
  m_GameObject: {fileID: 519420028}
  m_Enabled: 1
--- !u!20 &519420031
Camera:
  m_ObjectHideFlags: 0
  m_CorrespondingSourceObject: {fileID: 0}
  m_PrefabInternal: {fileID: 0}
  m_GameObject: {fileID: 519420028}
  m_Enabled: 1
  serializedVersion: 2
  m_ClearFlags: 2
  m_BackGroundColor: {r: 0.19215687, g: 0.3019608, b: 0.4745098, a: 0}
  m_projectionMatrixMode: 1
  m_SensorSize: {x: 36, y: 24}
  m_LensShift: {x: 0, y: 0}
  m_FocalLength: 50
  m_NormalizedViewPortRect:
    serializedVersion: 2
    x: 0
    y: 0
    width: 1
    height: 1
  near clip plane: 0.3
  far clip plane: 1000
  field of view: 60
  orthographic: 1
  orthographic size: 5
  m_Depth: -1
  m_CullingMask:
    serializedVersion: 2
    m_Bits: 4294967295
  m_RenderingPath: -1
  m_TargetTexture: {fileID: 0}
  m_TargetDisplay: 0
  m_TargetEye: 0
  m_HDR: 1
  m_AllowMSAA: 0
  m_AllowDynamicResolution: 0
  m_ForceIntoRT: 0
  m_OcclusionCulling: 0
  m_StereoConvergence: 10
  m_StereoSeparation: 0.022
--- !u!4 &519420032
Transform:
  m_ObjectHideFlags: 0
  m_CorrespondingSourceObject: {fileID: 0}
  m_PrefabInternal: {fileID: 0}
  m_GameObject: {fileID: 519420028}
  m_LocalRotation: {x: 0, y: 0, z: 0, w: 1}
  m_LocalPosition: {x: 0, y: 0, z: -10}
  m_LocalScale: {x: 1, y: 1, z: 1}
  m_Children: []
  m_Father: {fileID: 0}
  m_RootOrder: 0
  m_LocalEulerAnglesHint: {x: 0, y: 0, z: 0}
--- !u!1001 &533755719
Prefab:
  m_ObjectHideFlags: 0
  serializedVersion: 2
  m_Modification:
    m_TransformParent: {fileID: 1435997067}
    m_Modifications:
    - target: {fileID: 4337036896296062, guid: f4c6a7c4d2efa9842bcea267c87cbba5, type: 2}
      propertyPath: m_LocalPosition.x
      value: 8.4
      objectReference: {fileID: 0}
    - target: {fileID: 4337036896296062, guid: f4c6a7c4d2efa9842bcea267c87cbba5, type: 2}
      propertyPath: m_LocalPosition.y
      value: -9.8
      objectReference: {fileID: 0}
    - target: {fileID: 4337036896296062, guid: f4c6a7c4d2efa9842bcea267c87cbba5, type: 2}
      propertyPath: m_LocalPosition.z
      value: 1.3171759
      objectReference: {fileID: 0}
    - target: {fileID: 4337036896296062, guid: f4c6a7c4d2efa9842bcea267c87cbba5, type: 2}
      propertyPath: m_LocalRotation.x
      value: -0
      objectReference: {fileID: 0}
    - target: {fileID: 4337036896296062, guid: f4c6a7c4d2efa9842bcea267c87cbba5, type: 2}
      propertyPath: m_LocalRotation.y
      value: -0
      objectReference: {fileID: 0}
    - target: {fileID: 4337036896296062, guid: f4c6a7c4d2efa9842bcea267c87cbba5, type: 2}
      propertyPath: m_LocalRotation.z
      value: -0
      objectReference: {fileID: 0}
    - target: {fileID: 4337036896296062, guid: f4c6a7c4d2efa9842bcea267c87cbba5, type: 2}
      propertyPath: m_LocalRotation.w
      value: 1
      objectReference: {fileID: 0}
    - target: {fileID: 4337036896296062, guid: f4c6a7c4d2efa9842bcea267c87cbba5, type: 2}
      propertyPath: m_RootOrder
      value: 2
      objectReference: {fileID: 0}
    - target: {fileID: 1556020867057728, guid: f4c6a7c4d2efa9842bcea267c87cbba5, type: 2}
      propertyPath: m_Name
      value: Brick (2)
      objectReference: {fileID: 0}
    m_RemovedComponents: []
  m_SourcePrefab: {fileID: 100100000, guid: f4c6a7c4d2efa9842bcea267c87cbba5, type: 2}
  m_IsPrefabAsset: 0
--- !u!1001 &664869986
Prefab:
  m_ObjectHideFlags: 0
  serializedVersion: 2
  m_Modification:
    m_TransformParent: {fileID: 0}
    m_Modifications:
    - target: {fileID: 4486669598712608, guid: 7d573fc2ff7dee94c8493fda9c310ebd, type: 2}
      propertyPath: m_LocalPosition.x
      value: -0.03
      objectReference: {fileID: 0}
    - target: {fileID: 4486669598712608, guid: 7d573fc2ff7dee94c8493fda9c310ebd, type: 2}
      propertyPath: m_LocalPosition.y
      value: -1.3884296
      objectReference: {fileID: 0}
    - target: {fileID: 4486669598712608, guid: 7d573fc2ff7dee94c8493fda9c310ebd, type: 2}
      propertyPath: m_LocalPosition.z
      value: 0
      objectReference: {fileID: 0}
    - target: {fileID: 4486669598712608, guid: 7d573fc2ff7dee94c8493fda9c310ebd, type: 2}
      propertyPath: m_LocalRotation.x
      value: 0
      objectReference: {fileID: 0}
    - target: {fileID: 4486669598712608, guid: 7d573fc2ff7dee94c8493fda9c310ebd, type: 2}
      propertyPath: m_LocalRotation.y
      value: 0
      objectReference: {fileID: 0}
    - target: {fileID: 4486669598712608, guid: 7d573fc2ff7dee94c8493fda9c310ebd, type: 2}
      propertyPath: m_LocalRotation.z
      value: 0
      objectReference: {fileID: 0}
    - target: {fileID: 4486669598712608, guid: 7d573fc2ff7dee94c8493fda9c310ebd, type: 2}
      propertyPath: m_LocalRotation.w
      value: 1
      objectReference: {fileID: 0}
    - target: {fileID: 4486669598712608, guid: 7d573fc2ff7dee94c8493fda9c310ebd, type: 2}
      propertyPath: m_RootOrder
      value: 3
      objectReference: {fileID: 0}
    - target: {fileID: 114221234127996200, guid: 7d573fc2ff7dee94c8493fda9c310ebd,
        type: 2}
      propertyPath: gameController
      value: 
      objectReference: {fileID: 392462890}
    m_RemovedComponents: []
  m_SourcePrefab: {fileID: 100100000, guid: 7d573fc2ff7dee94c8493fda9c310ebd, type: 2}
  m_IsPrefabAsset: 0
--- !u!4 &799940136 stripped
Transform:
  m_CorrespondingSourceObject: {fileID: 4337036896296062, guid: f4c6a7c4d2efa9842bcea267c87cbba5,
    type: 2}
  m_PrefabInternal: {fileID: 46542700}
--- !u!4 &809257407 stripped
Transform:
  m_CorrespondingSourceObject: {fileID: 4337036896296062, guid: f4c6a7c4d2efa9842bcea267c87cbba5,
    type: 2}
  m_PrefabInternal: {fileID: 1852914241}
--- !u!4 &882183026 stripped
Transform:
  m_CorrespondingSourceObject: {fileID: 4337036896296062, guid: f4c6a7c4d2efa9842bcea267c87cbba5,
    type: 2}
  m_PrefabInternal: {fileID: 98689888}
--- !u!1001 &916795651
Prefab:
  m_ObjectHideFlags: 0
  serializedVersion: 2
  m_Modification:
    m_TransformParent: {fileID: 1435997067}
    m_Modifications:
    - target: {fileID: 4337036896296062, guid: f4c6a7c4d2efa9842bcea267c87cbba5, type: 2}
      propertyPath: m_LocalPosition.x
      value: 8.4
      objectReference: {fileID: 0}
    - target: {fileID: 4337036896296062, guid: f4c6a7c4d2efa9842bcea267c87cbba5, type: 2}
      propertyPath: m_LocalPosition.y
      value: -14.3
      objectReference: {fileID: 0}
    - target: {fileID: 4337036896296062, guid: f4c6a7c4d2efa9842bcea267c87cbba5, type: 2}
      propertyPath: m_LocalPosition.z
      value: 1.3171759
      objectReference: {fileID: 0}
    - target: {fileID: 4337036896296062, guid: f4c6a7c4d2efa9842bcea267c87cbba5, type: 2}
      propertyPath: m_LocalRotation.x
      value: -0
      objectReference: {fileID: 0}
    - target: {fileID: 4337036896296062, guid: f4c6a7c4d2efa9842bcea267c87cbba5, type: 2}
      propertyPath: m_LocalRotation.y
      value: -0
      objectReference: {fileID: 0}
    - target: {fileID: 4337036896296062, guid: f4c6a7c4d2efa9842bcea267c87cbba5, type: 2}
      propertyPath: m_LocalRotation.z
      value: -0
      objectReference: {fileID: 0}
    - target: {fileID: 4337036896296062, guid: f4c6a7c4d2efa9842bcea267c87cbba5, type: 2}
      propertyPath: m_LocalRotation.w
      value: 1
      objectReference: {fileID: 0}
    - target: {fileID: 4337036896296062, guid: f4c6a7c4d2efa9842bcea267c87cbba5, type: 2}
      propertyPath: m_RootOrder
      value: 7
      objectReference: {fileID: 0}
    - target: {fileID: 1556020867057728, guid: f4c6a7c4d2efa9842bcea267c87cbba5, type: 2}
      propertyPath: m_Name
      value: Brick (7)
      objectReference: {fileID: 0}
    m_RemovedComponents: []
  m_SourcePrefab: {fileID: 100100000, guid: f4c6a7c4d2efa9842bcea267c87cbba5, type: 2}
  m_IsPrefabAsset: 0
--- !u!4 &959632117 stripped
Transform:
  m_CorrespondingSourceObject: {fileID: 4856162994320406, guid: cc47a64e0f48e204aa6d7dc91b023fad,
    type: 2}
  m_PrefabInternal: {fileID: 2055177923}
--- !u!1 &996062347
GameObject:
  m_ObjectHideFlags: 0
  m_CorrespondingSourceObject: {fileID: 0}
  m_PrefabInternal: {fileID: 0}
  serializedVersion: 6
  m_Component:
  - component: {fileID: 996062348}
  - component: {fileID: 996062349}
  - component: {fileID: 996062350}
  m_Layer: 0
  m_Name: Background
  m_TagString: Untagged
  m_Icon: {fileID: 0}
  m_NavMeshLayer: 0
  m_StaticEditorFlags: 0
  m_IsActive: 1
--- !u!4 &996062348
Transform:
  m_ObjectHideFlags: 0
  m_CorrespondingSourceObject: {fileID: 0}
  m_PrefabInternal: {fileID: 0}
  m_GameObject: {fileID: 996062347}
  m_LocalRotation: {x: 0, y: 0, z: 0, w: 1}
  m_LocalPosition: {x: -0.72, y: 0, z: 0}
  m_LocalScale: {x: 1, y: 1, z: 1}
  m_Children:
  - {fileID: 959632117}
  - {fileID: 1027939587}
  - {fileID: 1098495771}
  - {fileID: 77196850}
  - {fileID: 1248960905}
  m_Father: {fileID: 0}
  m_RootOrder: 1
  m_LocalEulerAnglesHint: {x: 0, y: 0, z: 0}
--- !u!114 &996062349
MonoBehaviour:
  m_ObjectHideFlags: 0
  m_CorrespondingSourceObject: {fileID: 0}
  m_PrefabInternal: {fileID: 0}
  m_GameObject: {fileID: 996062347}
  m_Enabled: 1
  m_EditorHideFlags: 0
  m_Script: {fileID: 11500000, guid: bfb07469bdb88eb47bee0e12547c00a6, type: 3}
  m_Name: 
  m_EditorClassIdentifier: 
  runningClip: {fileID: 8300000, guid: 7b2cc558a3bc1d34993d013447dd1ea5, type: 3}
  rangeAvailable: 4
--- !u!82 &996062350
AudioSource:
  m_ObjectHideFlags: 0
  m_CorrespondingSourceObject: {fileID: 0}
  m_PrefabInternal: {fileID: 0}
  m_GameObject: {fileID: 996062347}
  m_Enabled: 1
  serializedVersion: 4
  OutputAudioMixerGroup: {fileID: 0}
  m_audioClip: {fileID: 0}
  m_PlayOnAwake: 0
  m_Volume: 1
  m_Pitch: 1
  Loop: 0
  Mute: 0
  Spatialize: 0
  SpatializePostEffects: 0
  Priority: 128
  DopplerLevel: 1
  MinDistance: 1
  MaxDistance: 500
  Pan2D: 0
  rolloffMode: 0
  BypassEffects: 0
  BypassListenerEffects: 0
  BypassReverbZones: 0
  rolloffCustomCurve:
    serializedVersion: 2
    m_Curve:
    - serializedVersion: 3
      time: 0
      value: 1
      inSlope: 0
      outSlope: 0
      tangentMode: 0
      weightedMode: 0
      inWeight: 0.33333334
      outWeight: 0.33333334
    - serializedVersion: 3
      time: 1
      value: 0
      inSlope: 0
      outSlope: 0
      tangentMode: 0
      weightedMode: 0
      inWeight: 0.33333334
      outWeight: 0.33333334
    m_PreInfinity: 2
    m_PostInfinity: 2
    m_RotationOrder: 4
  panLevelCustomCurve:
    serializedVersion: 2
    m_Curve:
    - serializedVersion: 3
      time: 0
      value: 0
      inSlope: 0
      outSlope: 0
      tangentMode: 0
      weightedMode: 0
      inWeight: 0.33333334
      outWeight: 0.33333334
    m_PreInfinity: 2
    m_PostInfinity: 2
    m_RotationOrder: 4
  spreadCustomCurve:
    serializedVersion: 2
    m_Curve:
    - serializedVersion: 3
      time: 0
      value: 0
      inSlope: 0
      outSlope: 0
      tangentMode: 0
      weightedMode: 0
      inWeight: 0.33333334
      outWeight: 0.33333334
    m_PreInfinity: 2
    m_PostInfinity: 2
    m_RotationOrder: 4
  reverbZoneMixCustomCurve:
    serializedVersion: 2
    m_Curve:
    - serializedVersion: 3
      time: 0
      value: 1
      inSlope: 0
      outSlope: 0
      tangentMode: 0
      weightedMode: 0
      inWeight: 0.33333334
      outWeight: 0.33333334
    m_PreInfinity: 2
    m_PostInfinity: 2
    m_RotationOrder: 4
--- !u!1001 &1027939586
Prefab:
  m_ObjectHideFlags: 0
  serializedVersion: 2
  m_Modification:
    m_TransformParent: {fileID: 996062348}
    m_Modifications:
    - target: {fileID: 4856162994320406, guid: cc47a64e0f48e204aa6d7dc91b023fad, type: 2}
      propertyPath: m_LocalPosition.x
      value: 0.72
      objectReference: {fileID: 0}
    - target: {fileID: 4856162994320406, guid: cc47a64e0f48e204aa6d7dc91b023fad, type: 2}
      propertyPath: m_LocalPosition.y
      value: 8.940001
      objectReference: {fileID: 0}
    - target: {fileID: 4856162994320406, guid: cc47a64e0f48e204aa6d7dc91b023fad, type: 2}
      propertyPath: m_LocalPosition.z
      value: 0
      objectReference: {fileID: 0}
    - target: {fileID: 4856162994320406, guid: cc47a64e0f48e204aa6d7dc91b023fad, type: 2}
      propertyPath: m_LocalRotation.x
      value: -0
      objectReference: {fileID: 0}
    - target: {fileID: 4856162994320406, guid: cc47a64e0f48e204aa6d7dc91b023fad, type: 2}
      propertyPath: m_LocalRotation.y
      value: -0
      objectReference: {fileID: 0}
    - target: {fileID: 4856162994320406, guid: cc47a64e0f48e204aa6d7dc91b023fad, type: 2}
      propertyPath: m_LocalRotation.z
      value: -0
      objectReference: {fileID: 0}
    - target: {fileID: 4856162994320406, guid: cc47a64e0f48e204aa6d7dc91b023fad, type: 2}
      propertyPath: m_LocalRotation.w
      value: 1
      objectReference: {fileID: 0}
    - target: {fileID: 4856162994320406, guid: cc47a64e0f48e204aa6d7dc91b023fad, type: 2}
      propertyPath: m_RootOrder
      value: 1
      objectReference: {fileID: 0}
    - target: {fileID: 1653430205233394, guid: cc47a64e0f48e204aa6d7dc91b023fad, type: 2}
      propertyPath: m_Name
      value: Road (1)
      objectReference: {fileID: 0}
    m_RemovedComponents: []
  m_SourcePrefab: {fileID: 100100000, guid: cc47a64e0f48e204aa6d7dc91b023fad, type: 2}
  m_IsPrefabAsset: 0
--- !u!4 &1027939587 stripped
Transform:
  m_CorrespondingSourceObject: {fileID: 4856162994320406, guid: cc47a64e0f48e204aa6d7dc91b023fad,
    type: 2}
  m_PrefabInternal: {fileID: 1027939586}
--- !u!1 &1038011722
GameObject:
  m_ObjectHideFlags: 0
  m_CorrespondingSourceObject: {fileID: 0}
  m_PrefabInternal: {fileID: 0}
  serializedVersion: 6
  m_Component:
  - component: {fileID: 1038011723}
  - component: {fileID: 1038011725}
  - component: {fileID: 1038011724}
  m_Layer: 5
  m_Name: Handle
  m_TagString: Untagged
  m_Icon: {fileID: 0}
  m_NavMeshLayer: 0
  m_StaticEditorFlags: 0
  m_IsActive: 1
--- !u!224 &1038011723
RectTransform:
  m_ObjectHideFlags: 0
  m_CorrespondingSourceObject: {fileID: 0}
  m_PrefabInternal: {fileID: 0}
  m_GameObject: {fileID: 1038011722}
  m_LocalRotation: {x: 0, y: 0, z: 0, w: 1}
  m_LocalPosition: {x: 0, y: 0, z: 0}
  m_LocalScale: {x: 1, y: 1, z: 1}
  m_Children: []
  m_Father: {fileID: 7728042}
  m_RootOrder: 0
  m_LocalEulerAnglesHint: {x: 0, y: 0, z: 0}
  m_AnchorMin: {x: 1, y: 0}
  m_AnchorMax: {x: 1, y: 1}
  m_AnchoredPosition: {x: 0, y: 0}
  m_SizeDelta: {x: 20, y: 0}
  m_Pivot: {x: 0.5, y: 0.5}
--- !u!114 &1038011724
MonoBehaviour:
  m_ObjectHideFlags: 0
  m_CorrespondingSourceObject: {fileID: 0}
  m_PrefabInternal: {fileID: 0}
  m_GameObject: {fileID: 1038011722}
  m_Enabled: 1
  m_EditorHideFlags: 0
  m_Script: {fileID: -765806418, guid: f70555f144d8491a825f0804e09c671c, type: 3}
  m_Name: 
  m_EditorClassIdentifier: 
  m_Material: {fileID: 0}
  m_Color: {r: 1, g: 1, b: 1, a: 1}
  m_RaycastTarget: 1
  m_OnCullStateChanged:
    m_PersistentCalls:
      m_Calls: []
    m_TypeName: UnityEngine.UI.MaskableGraphic+CullStateChangedEvent, UnityEngine.UI,
      Version=1.0.0.0, Culture=neutral, PublicKeyToken=null
  m_Sprite: {fileID: 10913, guid: 0000000000000000f000000000000000, type: 0}
  m_Type: 0
  m_PreserveAspect: 0
  m_FillCenter: 1
  m_FillMethod: 4
  m_FillAmount: 1
  m_FillClockwise: 1
  m_FillOrigin: 0
--- !u!222 &1038011725
CanvasRenderer:
  m_ObjectHideFlags: 0
  m_CorrespondingSourceObject: {fileID: 0}
  m_PrefabInternal: {fileID: 0}
  m_GameObject: {fileID: 1038011722}
  m_CullTransparentMesh: 0
--- !u!1 &1061368245
GameObject:
  m_ObjectHideFlags: 0
  m_CorrespondingSourceObject: {fileID: 0}
  m_PrefabInternal: {fileID: 0}
  serializedVersion: 6
  m_Component:
  - component: {fileID: 1061368246}
  - component: {fileID: 1061368247}
  m_Layer: 5
  m_Name: healthSlider
  m_TagString: Untagged
  m_Icon: {fileID: 0}
  m_NavMeshLayer: 0
  m_StaticEditorFlags: 0
  m_IsActive: 1
--- !u!224 &1061368246
RectTransform:
  m_ObjectHideFlags: 0
  m_CorrespondingSourceObject: {fileID: 0}
  m_PrefabInternal: {fileID: 0}
  m_GameObject: {fileID: 1061368245}
  m_LocalRotation: {x: 0, y: 0, z: 0, w: 1}
  m_LocalPosition: {x: 0, y: 0, z: 0}
  m_LocalScale: {x: 1, y: 1, z: 1}
  m_Children:
  - {fileID: 272939192}
  - {fileID: 1539021336}
  - {fileID: 7728042}
  m_Father: {fileID: 1838563187}
  m_RootOrder: 1
  m_LocalEulerAnglesHint: {x: 0, y: 0, z: 0}
  m_AnchorMin: {x: 0, y: 1}
  m_AnchorMax: {x: 0, y: 1}
  m_AnchoredPosition: {x: 80, y: -15}
  m_SizeDelta: {x: 160, y: 50}
  m_Pivot: {x: 0.5, y: 0.5}
--- !u!114 &1061368247
MonoBehaviour:
  m_ObjectHideFlags: 0
  m_CorrespondingSourceObject: {fileID: 0}
  m_PrefabInternal: {fileID: 0}
  m_GameObject: {fileID: 1061368245}
  m_Enabled: 1
  m_EditorHideFlags: 0
  m_Script: {fileID: -113659843, guid: f70555f144d8491a825f0804e09c671c, type: 3}
  m_Name: 
  m_EditorClassIdentifier: 
  m_Navigation:
    m_Mode: 3
    m_SelectOnUp: {fileID: 0}
    m_SelectOnDown: {fileID: 0}
    m_SelectOnLeft: {fileID: 0}
    m_SelectOnRight: {fileID: 0}
  m_Transition: 1
  m_Colors:
    m_NormalColor: {r: 1, g: 1, b: 1, a: 0}
    m_HighlightedColor: {r: 0.9607843, g: 0.9607843, b: 0.9607843, a: 1}
    m_PressedColor: {r: 0.78431374, g: 0.78431374, b: 0.78431374, a: 1}
    m_DisabledColor: {r: 0.78431374, g: 0.78431374, b: 0.78431374, a: 0.5019608}
    m_ColorMultiplier: 1
    m_FadeDuration: 0.1
  m_SpriteState:
    m_HighlightedSprite: {fileID: 0}
    m_PressedSprite: {fileID: 0}
    m_DisabledSprite: {fileID: 0}
  m_AnimationTriggers:
    m_NormalTrigger: Normal
    m_HighlightedTrigger: Highlighted
    m_PressedTrigger: Pressed
    m_DisabledTrigger: Disabled
  m_Interactable: 1
  m_TargetGraphic: {fileID: 1038011724}
  m_FillRect: {fileID: 1858343566}
  m_HandleRect: {fileID: 1038011723}
  m_Direction: 0
  m_MinValue: 0
  m_MaxValue: 100
  m_WholeNumbers: 1
  m_Value: 100
  m_OnValueChanged:
    m_PersistentCalls:
      m_Calls: []
    m_TypeName: UnityEngine.UI.Slider+SliderEvent, UnityEngine.UI, Version=1.0.0.0,
      Culture=neutral, PublicKeyToken=null
--- !u!4 &1096896588 stripped
Transform:
  m_CorrespondingSourceObject: {fileID: 4337036896296062, guid: f4c6a7c4d2efa9842bcea267c87cbba5,
    type: 2}
  m_PrefabInternal: {fileID: 1138244894}
--- !u!1001 &1098495770
Prefab:
  m_ObjectHideFlags: 0
  serializedVersion: 2
  m_Modification:
    m_TransformParent: {fileID: 996062348}
    m_Modifications:
    - target: {fileID: 4856162994320406, guid: cc47a64e0f48e204aa6d7dc91b023fad, type: 2}
      propertyPath: m_LocalPosition.x
      value: 0.72
      objectReference: {fileID: 0}
    - target: {fileID: 4856162994320406, guid: cc47a64e0f48e204aa6d7dc91b023fad, type: 2}
      propertyPath: m_LocalPosition.y
      value: 4.94
      objectReference: {fileID: 0}
    - target: {fileID: 4856162994320406, guid: cc47a64e0f48e204aa6d7dc91b023fad, type: 2}
      propertyPath: m_LocalPosition.z
      value: 0
      objectReference: {fileID: 0}
    - target: {fileID: 4856162994320406, guid: cc47a64e0f48e204aa6d7dc91b023fad, type: 2}
      propertyPath: m_LocalRotation.x
      value: -0
      objectReference: {fileID: 0}
    - target: {fileID: 4856162994320406, guid: cc47a64e0f48e204aa6d7dc91b023fad, type: 2}
      propertyPath: m_LocalRotation.y
      value: -0
      objectReference: {fileID: 0}
    - target: {fileID: 4856162994320406, guid: cc47a64e0f48e204aa6d7dc91b023fad, type: 2}
      propertyPath: m_LocalRotation.z
      value: -0
      objectReference: {fileID: 0}
    - target: {fileID: 4856162994320406, guid: cc47a64e0f48e204aa6d7dc91b023fad, type: 2}
      propertyPath: m_LocalRotation.w
      value: 1
      objectReference: {fileID: 0}
    - target: {fileID: 4856162994320406, guid: cc47a64e0f48e204aa6d7dc91b023fad, type: 2}
      propertyPath: m_RootOrder
      value: 2
      objectReference: {fileID: 0}
    - target: {fileID: 1653430205233394, guid: cc47a64e0f48e204aa6d7dc91b023fad, type: 2}
      propertyPath: m_Name
      value: Road (2)
      objectReference: {fileID: 0}
    m_RemovedComponents: []
  m_SourcePrefab: {fileID: 100100000, guid: cc47a64e0f48e204aa6d7dc91b023fad, type: 2}
  m_IsPrefabAsset: 0
--- !u!4 &1098495771 stripped
Transform:
  m_CorrespondingSourceObject: {fileID: 4856162994320406, guid: cc47a64e0f48e204aa6d7dc91b023fad,
    type: 2}
  m_PrefabInternal: {fileID: 1098495770}
--- !u!1001 &1138244894
Prefab:
  m_ObjectHideFlags: 0
  serializedVersion: 2
  m_Modification:
    m_TransformParent: {fileID: 1435997067}
    m_Modifications:
    - target: {fileID: 4337036896296062, guid: f4c6a7c4d2efa9842bcea267c87cbba5, type: 2}
      propertyPath: m_LocalPosition.x
      value: 8.4
      objectReference: {fileID: 0}
    - target: {fileID: 4337036896296062, guid: f4c6a7c4d2efa9842bcea267c87cbba5, type: 2}
      propertyPath: m_LocalPosition.y
      value: -10.7
      objectReference: {fileID: 0}
    - target: {fileID: 4337036896296062, guid: f4c6a7c4d2efa9842bcea267c87cbba5, type: 2}
      propertyPath: m_LocalPosition.z
      value: 1.3171759
      objectReference: {fileID: 0}
    - target: {fileID: 4337036896296062, guid: f4c6a7c4d2efa9842bcea267c87cbba5, type: 2}
      propertyPath: m_LocalRotation.x
      value: -0
      objectReference: {fileID: 0}
    - target: {fileID: 4337036896296062, guid: f4c6a7c4d2efa9842bcea267c87cbba5, type: 2}
      propertyPath: m_LocalRotation.y
      value: -0
      objectReference: {fileID: 0}
    - target: {fileID: 4337036896296062, guid: f4c6a7c4d2efa9842bcea267c87cbba5, type: 2}
      propertyPath: m_LocalRotation.z
      value: -0
      objectReference: {fileID: 0}
    - target: {fileID: 4337036896296062, guid: f4c6a7c4d2efa9842bcea267c87cbba5, type: 2}
      propertyPath: m_LocalRotation.w
      value: 1
      objectReference: {fileID: 0}
    - target: {fileID: 4337036896296062, guid: f4c6a7c4d2efa9842bcea267c87cbba5, type: 2}
      propertyPath: m_RootOrder
      value: 3
      objectReference: {fileID: 0}
    - target: {fileID: 1556020867057728, guid: f4c6a7c4d2efa9842bcea267c87cbba5, type: 2}
      propertyPath: m_Name
      value: Brick (3)
      objectReference: {fileID: 0}
    m_RemovedComponents: []
  m_SourcePrefab: {fileID: 100100000, guid: f4c6a7c4d2efa9842bcea267c87cbba5, type: 2}
  m_IsPrefabAsset: 0
--- !u!4 &1222839216 stripped
Transform:
  m_CorrespondingSourceObject: {fileID: 4337036896296062, guid: f4c6a7c4d2efa9842bcea267c87cbba5,
    type: 2}
  m_PrefabInternal: {fileID: 298238177}
--- !u!1001 &1248960904
Prefab:
  m_ObjectHideFlags: 0
  serializedVersion: 2
  m_Modification:
    m_TransformParent: {fileID: 996062348}
    m_Modifications:
    - target: {fileID: 4856162994320406, guid: cc47a64e0f48e204aa6d7dc91b023fad, type: 2}
      propertyPath: m_LocalPosition.x
      value: 0.72
      objectReference: {fileID: 0}
    - target: {fileID: 4856162994320406, guid: cc47a64e0f48e204aa6d7dc91b023fad, type: 2}
      propertyPath: m_LocalPosition.y
      value: -3.06
      objectReference: {fileID: 0}
    - target: {fileID: 4856162994320406, guid: cc47a64e0f48e204aa6d7dc91b023fad, type: 2}
      propertyPath: m_LocalPosition.z
      value: 0
      objectReference: {fileID: 0}
    - target: {fileID: 4856162994320406, guid: cc47a64e0f48e204aa6d7dc91b023fad, type: 2}
      propertyPath: m_LocalRotation.x
      value: -0
      objectReference: {fileID: 0}
    - target: {fileID: 4856162994320406, guid: cc47a64e0f48e204aa6d7dc91b023fad, type: 2}
      propertyPath: m_LocalRotation.y
      value: -0
      objectReference: {fileID: 0}
    - target: {fileID: 4856162994320406, guid: cc47a64e0f48e204aa6d7dc91b023fad, type: 2}
      propertyPath: m_LocalRotation.z
      value: -0
      objectReference: {fileID: 0}
    - target: {fileID: 4856162994320406, guid: cc47a64e0f48e204aa6d7dc91b023fad, type: 2}
      propertyPath: m_LocalRotation.w
      value: 1
      objectReference: {fileID: 0}
    - target: {fileID: 4856162994320406, guid: cc47a64e0f48e204aa6d7dc91b023fad, type: 2}
      propertyPath: m_RootOrder
      value: 4
      objectReference: {fileID: 0}
    - target: {fileID: 1653430205233394, guid: cc47a64e0f48e204aa6d7dc91b023fad, type: 2}
      propertyPath: m_Name
      value: Road (4)
      objectReference: {fileID: 0}
    m_RemovedComponents: []
  m_SourcePrefab: {fileID: 100100000, guid: cc47a64e0f48e204aa6d7dc91b023fad, type: 2}
  m_IsPrefabAsset: 0
--- !u!4 &1248960905 stripped
Transform:
  m_CorrespondingSourceObject: {fileID: 4856162994320406, guid: cc47a64e0f48e204aa6d7dc91b023fad,
    type: 2}
  m_PrefabInternal: {fileID: 1248960904}
--- !u!1001 &1373742756
Prefab:
  m_ObjectHideFlags: 0
  serializedVersion: 2
  m_Modification:
    m_TransformParent: {fileID: 1435997067}
    m_Modifications:
    - target: {fileID: 4337036896296062, guid: f4c6a7c4d2efa9842bcea267c87cbba5, type: 2}
      propertyPath: m_LocalPosition.x
      value: 8.4
      objectReference: {fileID: 0}
    - target: {fileID: 4337036896296062, guid: f4c6a7c4d2efa9842bcea267c87cbba5, type: 2}
      propertyPath: m_LocalPosition.y
      value: -13.4
      objectReference: {fileID: 0}
    - target: {fileID: 4337036896296062, guid: f4c6a7c4d2efa9842bcea267c87cbba5, type: 2}
      propertyPath: m_LocalPosition.z
      value: 1.3171759
      objectReference: {fileID: 0}
    - target: {fileID: 4337036896296062, guid: f4c6a7c4d2efa9842bcea267c87cbba5, type: 2}
      propertyPath: m_LocalRotation.x
      value: -0
      objectReference: {fileID: 0}
    - target: {fileID: 4337036896296062, guid: f4c6a7c4d2efa9842bcea267c87cbba5, type: 2}
      propertyPath: m_LocalRotation.y
      value: -0
      objectReference: {fileID: 0}
    - target: {fileID: 4337036896296062, guid: f4c6a7c4d2efa9842bcea267c87cbba5, type: 2}
      propertyPath: m_LocalRotation.z
      value: -0
      objectReference: {fileID: 0}
    - target: {fileID: 4337036896296062, guid: f4c6a7c4d2efa9842bcea267c87cbba5, type: 2}
      propertyPath: m_LocalRotation.w
      value: 1
      objectReference: {fileID: 0}
    - target: {fileID: 4337036896296062, guid: f4c6a7c4d2efa9842bcea267c87cbba5, type: 2}
      propertyPath: m_RootOrder
      value: 6
      objectReference: {fileID: 0}
    - target: {fileID: 1556020867057728, guid: f4c6a7c4d2efa9842bcea267c87cbba5, type: 2}
      propertyPath: m_Name
      value: Brick (6)
      objectReference: {fileID: 0}
    m_RemovedComponents: []
  m_SourcePrefab: {fileID: 100100000, guid: f4c6a7c4d2efa9842bcea267c87cbba5, type: 2}
  m_IsPrefabAsset: 0
--- !u!1 &1435997066
GameObject:
  m_ObjectHideFlags: 0
  m_CorrespondingSourceObject: {fileID: 0}
  m_PrefabInternal: {fileID: 0}
  serializedVersion: 6
  m_Component:
  - component: {fileID: 1435997067}
  - component: {fileID: 1435997068}
  m_Layer: 0
  m_Name: Bricks
  m_TagString: resetBrick
  m_Icon: {fileID: 0}
  m_NavMeshLayer: 0
  m_StaticEditorFlags: 0
  m_IsActive: 1
--- !u!4 &1435997067
Transform:
  m_ObjectHideFlags: 0
  m_CorrespondingSourceObject: {fileID: 0}
  m_PrefabInternal: {fileID: 0}
  m_GameObject: {fileID: 1435997066}
  m_LocalRotation: {x: 0, y: 0, z: 0, w: 1}
  m_LocalPosition: {x: -0.7215359, y: 0.37893194, z: 0}
  m_LocalScale: {x: 1, y: 1, z: 1}
  m_Children:
  - {fileID: 799940136}
  - {fileID: 882183026}
  - {fileID: 1568116052}
  - {fileID: 1096896588}
  - {fileID: 1930982836}
  - {fileID: 1739366510}
  - {fileID: 2077211928}
  - {fileID: 462127609}
  - {fileID: 1222839216}
  - {fileID: 1871895402}
  - {fileID: 809257407}
  - {fileID: 157714329}
  - {fileID: 374849155}
  m_Father: {fileID: 0}
  m_RootOrder: 2
  m_LocalEulerAnglesHint: {x: 0, y: 0, z: 0}
--- !u!61 &1435997068
BoxCollider2D:
  m_ObjectHideFlags: 0
  m_CorrespondingSourceObject: {fileID: 0}
  m_PrefabInternal: {fileID: 0}
  m_GameObject: {fileID: 1435997066}
  m_Enabled: 1
  m_Density: 1
  m_Material: {fileID: 0}
  m_IsTrigger: 1
  m_UsedByEffector: 0
  m_UsedByComposite: 0
  m_Offset: {x: 0.5, y: -7}
  m_SpriteTilingProperty:
    border: {x: 0, y: 0, z: 0, w: 0}
    pivot: {x: 0, y: 0}
    oldSize: {x: 0, y: 0}
    newSize: {x: 0, y: 0}
    adaptiveTilingThreshold: 0
    drawMode: 0
    adaptiveTiling: 0
  m_AutoTiling: 0
  serializedVersion: 2
  m_Size: {x: 11, y: 0.9}
  m_EdgeRadius: 0
--- !u!1001 &1505746797
Prefab:
  m_ObjectHideFlags: 0
  serializedVersion: 2
  m_Modification:
    m_TransformParent: {fileID: 1435997067}
    m_Modifications:
    - target: {fileID: 4337036896296062, guid: f4c6a7c4d2efa9842bcea267c87cbba5, type: 2}
      propertyPath: m_LocalPosition.x
      value: 8.4
      objectReference: {fileID: 0}
    - target: {fileID: 4337036896296062, guid: f4c6a7c4d2efa9842bcea267c87cbba5, type: 2}
      propertyPath: m_LocalPosition.y
      value: -17.9
      objectReference: {fileID: 0}
    - target: {fileID: 4337036896296062, guid: f4c6a7c4d2efa9842bcea267c87cbba5, type: 2}
      propertyPath: m_LocalPosition.z
      value: 1.3171759
      objectReference: {fileID: 0}
    - target: {fileID: 4337036896296062, guid: f4c6a7c4d2efa9842bcea267c87cbba5, type: 2}
      propertyPath: m_LocalRotation.x
      value: -0
      objectReference: {fileID: 0}
    - target: {fileID: 4337036896296062, guid: f4c6a7c4d2efa9842bcea267c87cbba5, type: 2}
      propertyPath: m_LocalRotation.y
      value: -0
      objectReference: {fileID: 0}
    - target: {fileID: 4337036896296062, guid: f4c6a7c4d2efa9842bcea267c87cbba5, type: 2}
      propertyPath: m_LocalRotation.z
      value: -0
      objectReference: {fileID: 0}
    - target: {fileID: 4337036896296062, guid: f4c6a7c4d2efa9842bcea267c87cbba5, type: 2}
      propertyPath: m_LocalRotation.w
      value: 1
      objectReference: {fileID: 0}
    - target: {fileID: 4337036896296062, guid: f4c6a7c4d2efa9842bcea267c87cbba5, type: 2}
      propertyPath: m_RootOrder
      value: 11
      objectReference: {fileID: 0}
    - target: {fileID: 1556020867057728, guid: f4c6a7c4d2efa9842bcea267c87cbba5, type: 2}
      propertyPath: m_Name
      value: Brick (11)
      objectReference: {fileID: 0}
    m_RemovedComponents: []
  m_SourcePrefab: {fileID: 100100000, guid: f4c6a7c4d2efa9842bcea267c87cbba5, type: 2}
  m_IsPrefabAsset: 0
--- !u!1 &1539021335
GameObject:
  m_ObjectHideFlags: 0
  m_CorrespondingSourceObject: {fileID: 0}
  m_PrefabInternal: {fileID: 0}
  serializedVersion: 6
  m_Component:
  - component: {fileID: 1539021336}
  m_Layer: 5
  m_Name: Fill Area
  m_TagString: Untagged
  m_Icon: {fileID: 0}
  m_NavMeshLayer: 0
  m_StaticEditorFlags: 0
  m_IsActive: 1
--- !u!224 &1539021336
RectTransform:
  m_ObjectHideFlags: 0
  m_CorrespondingSourceObject: {fileID: 0}
  m_PrefabInternal: {fileID: 0}
  m_GameObject: {fileID: 1539021335}
  m_LocalRotation: {x: 0, y: 0, z: 0, w: 1}
  m_LocalPosition: {x: 0, y: 0, z: 0}
  m_LocalScale: {x: 1, y: 1, z: 1}
  m_Children:
  - {fileID: 1858343566}
  m_Father: {fileID: 1061368246}
  m_RootOrder: 1
  m_LocalEulerAnglesHint: {x: 0, y: 0, z: 0}
  m_AnchorMin: {x: 0, y: 0.25}
  m_AnchorMax: {x: 1, y: 0.75}
  m_AnchoredPosition: {x: 0, y: 0}
  m_SizeDelta: {x: 0, y: 0}
  m_Pivot: {x: 0.5, y: 0.5}
--- !u!1001 &1558848169
Prefab:
  m_ObjectHideFlags: 0
  serializedVersion: 2
  m_Modification:
    m_TransformParent: {fileID: 1435997067}
    m_Modifications:
    - target: {fileID: 4337036896296062, guid: f4c6a7c4d2efa9842bcea267c87cbba5, type: 2}
      propertyPath: m_LocalPosition.x
      value: 8.4
      objectReference: {fileID: 0}
    - target: {fileID: 4337036896296062, guid: f4c6a7c4d2efa9842bcea267c87cbba5, type: 2}
      propertyPath: m_LocalPosition.y
      value: -11.6
      objectReference: {fileID: 0}
    - target: {fileID: 4337036896296062, guid: f4c6a7c4d2efa9842bcea267c87cbba5, type: 2}
      propertyPath: m_LocalPosition.z
      value: 1.3171759
      objectReference: {fileID: 0}
    - target: {fileID: 4337036896296062, guid: f4c6a7c4d2efa9842bcea267c87cbba5, type: 2}
      propertyPath: m_LocalRotation.x
      value: -0
      objectReference: {fileID: 0}
    - target: {fileID: 4337036896296062, guid: f4c6a7c4d2efa9842bcea267c87cbba5, type: 2}
      propertyPath: m_LocalRotation.y
      value: -0
      objectReference: {fileID: 0}
    - target: {fileID: 4337036896296062, guid: f4c6a7c4d2efa9842bcea267c87cbba5, type: 2}
      propertyPath: m_LocalRotation.z
      value: -0
      objectReference: {fileID: 0}
    - target: {fileID: 4337036896296062, guid: f4c6a7c4d2efa9842bcea267c87cbba5, type: 2}
      propertyPath: m_LocalRotation.w
      value: 1
      objectReference: {fileID: 0}
    - target: {fileID: 4337036896296062, guid: f4c6a7c4d2efa9842bcea267c87cbba5, type: 2}
      propertyPath: m_RootOrder
      value: 4
      objectReference: {fileID: 0}
    - target: {fileID: 1556020867057728, guid: f4c6a7c4d2efa9842bcea267c87cbba5, type: 2}
      propertyPath: m_Name
      value: Brick (4)
      objectReference: {fileID: 0}
    m_RemovedComponents: []
  m_SourcePrefab: {fileID: 100100000, guid: f4c6a7c4d2efa9842bcea267c87cbba5, type: 2}
  m_IsPrefabAsset: 0
--- !u!1001 &1564409654
Prefab:
  m_ObjectHideFlags: 0
  serializedVersion: 2
  m_Modification:
    m_TransformParent: {fileID: 1435997067}
    m_Modifications:
    - target: {fileID: 4337036896296062, guid: f4c6a7c4d2efa9842bcea267c87cbba5, type: 2}
      propertyPath: m_LocalPosition.x
      value: 8.4
      objectReference: {fileID: 0}
    - target: {fileID: 4337036896296062, guid: f4c6a7c4d2efa9842bcea267c87cbba5, type: 2}
      propertyPath: m_LocalPosition.y
      value: -16.1
      objectReference: {fileID: 0}
    - target: {fileID: 4337036896296062, guid: f4c6a7c4d2efa9842bcea267c87cbba5, type: 2}
      propertyPath: m_LocalPosition.z
      value: 1.3171759
      objectReference: {fileID: 0}
    - target: {fileID: 4337036896296062, guid: f4c6a7c4d2efa9842bcea267c87cbba5, type: 2}
      propertyPath: m_LocalRotation.x
      value: -0
      objectReference: {fileID: 0}
    - target: {fileID: 4337036896296062, guid: f4c6a7c4d2efa9842bcea267c87cbba5, type: 2}
      propertyPath: m_LocalRotation.y
      value: -0
      objectReference: {fileID: 0}
    - target: {fileID: 4337036896296062, guid: f4c6a7c4d2efa9842bcea267c87cbba5, type: 2}
      propertyPath: m_LocalRotation.z
      value: -0
      objectReference: {fileID: 0}
    - target: {fileID: 4337036896296062, guid: f4c6a7c4d2efa9842bcea267c87cbba5, type: 2}
      propertyPath: m_LocalRotation.w
      value: 1
      objectReference: {fileID: 0}
    - target: {fileID: 4337036896296062, guid: f4c6a7c4d2efa9842bcea267c87cbba5, type: 2}
      propertyPath: m_RootOrder
      value: 9
      objectReference: {fileID: 0}
    - target: {fileID: 1556020867057728, guid: f4c6a7c4d2efa9842bcea267c87cbba5, type: 2}
      propertyPath: m_Name
      value: Brick (9)
      objectReference: {fileID: 0}
    m_RemovedComponents: []
  m_SourcePrefab: {fileID: 100100000, guid: f4c6a7c4d2efa9842bcea267c87cbba5, type: 2}
  m_IsPrefabAsset: 0
--- !u!4 &1568116052 stripped
Transform:
  m_CorrespondingSourceObject: {fileID: 4337036896296062, guid: f4c6a7c4d2efa9842bcea267c87cbba5,
    type: 2}
  m_PrefabInternal: {fileID: 533755719}
--- !u!4 &1739366510 stripped
Transform:
  m_CorrespondingSourceObject: {fileID: 4337036896296062, guid: f4c6a7c4d2efa9842bcea267c87cbba5,
    type: 2}
  m_PrefabInternal: {fileID: 2064397537}
--- !u!1 &1838563183
GameObject:
  m_ObjectHideFlags: 0
  m_CorrespondingSourceObject: {fileID: 0}
  m_PrefabInternal: {fileID: 0}
  serializedVersion: 6
  m_Component:
  - component: {fileID: 1838563187}
  - component: {fileID: 1838563186}
  - component: {fileID: 1838563185}
  - component: {fileID: 1838563184}
  m_Layer: 5
  m_Name: Canvas
  m_TagString: Untagged
  m_Icon: {fileID: 0}
  m_NavMeshLayer: 0
  m_StaticEditorFlags: 0
  m_IsActive: 1
--- !u!114 &1838563184
MonoBehaviour:
  m_ObjectHideFlags: 0
  m_CorrespondingSourceObject: {fileID: 0}
  m_PrefabInternal: {fileID: 0}
  m_GameObject: {fileID: 1838563183}
  m_Enabled: 1
  m_EditorHideFlags: 0
  m_Script: {fileID: 1301386320, guid: f70555f144d8491a825f0804e09c671c, type: 3}
  m_Name: 
  m_EditorClassIdentifier: 
  m_IgnoreReversedGraphics: 1
  m_BlockingObjects: 0
  m_BlockingMask:
    serializedVersion: 2
    m_Bits: 4294967295
--- !u!114 &1838563185
MonoBehaviour:
  m_ObjectHideFlags: 0
  m_CorrespondingSourceObject: {fileID: 0}
  m_PrefabInternal: {fileID: 0}
  m_GameObject: {fileID: 1838563183}
  m_Enabled: 1
  m_EditorHideFlags: 0
  m_Script: {fileID: 1980459831, guid: f70555f144d8491a825f0804e09c671c, type: 3}
  m_Name: 
  m_EditorClassIdentifier: 
  m_UiScaleMode: 0
  m_ReferencePixelsPerUnit: 100
  m_ScaleFactor: 1
  m_ReferenceResolution: {x: 800, y: 600}
  m_ScreenMatchMode: 0
  m_MatchWidthOrHeight: 0
  m_PhysicalUnit: 3
  m_FallbackScreenDPI: 96
  m_DefaultSpriteDPI: 96
  m_DynamicPixelsPerUnit: 1
--- !u!223 &1838563186
Canvas:
  m_ObjectHideFlags: 0
  m_CorrespondingSourceObject: {fileID: 0}
  m_PrefabInternal: {fileID: 0}
  m_GameObject: {fileID: 1838563183}
  m_Enabled: 1
  serializedVersion: 3
  m_RenderMode: 1
  m_Camera: {fileID: 519420031}
  m_PlaneDistance: 100
  m_PixelPerfect: 0
  m_ReceivesEvents: 1
  m_OverrideSorting: 0
  m_OverridePixelPerfect: 0
  m_SortingBucketNormalizedSize: 0
  m_AdditionalShaderChannelsFlag: 0
  m_SortingLayerID: 0
  m_SortingOrder: 99
  m_TargetDisplay: 0
--- !u!224 &1838563187
RectTransform:
  m_ObjectHideFlags: 0
  m_CorrespondingSourceObject: {fileID: 0}
  m_PrefabInternal: {fileID: 0}
  m_GameObject: {fileID: 1838563183}
  m_LocalRotation: {x: 0, y: 0, z: 0, w: 1}
  m_LocalPosition: {x: 0, y: 0, z: 0}
  m_LocalScale: {x: 0, y: 0, z: 0}
  m_Children:
  - {fileID: 270456570}
  - {fileID: 1061368246}
  m_Father: {fileID: 0}
  m_RootOrder: 5
  m_LocalEulerAnglesHint: {x: 0, y: 0, z: 0}
  m_AnchorMin: {x: 0, y: 0}
  m_AnchorMax: {x: 0, y: 0}
  m_AnchoredPosition: {x: 0, y: 0}
  m_SizeDelta: {x: 0, y: 0}
  m_Pivot: {x: 0, y: 0}
--- !u!1001 &1852914241
Prefab:
  m_ObjectHideFlags: 0
  serializedVersion: 2
  m_Modification:
    m_TransformParent: {fileID: 1435997067}
    m_Modifications:
    - target: {fileID: 4337036896296062, guid: f4c6a7c4d2efa9842bcea267c87cbba5, type: 2}
      propertyPath: m_LocalPosition.x
      value: 8.4
      objectReference: {fileID: 0}
    - target: {fileID: 4337036896296062, guid: f4c6a7c4d2efa9842bcea267c87cbba5, type: 2}
      propertyPath: m_LocalPosition.y
      value: -17
      objectReference: {fileID: 0}
    - target: {fileID: 4337036896296062, guid: f4c6a7c4d2efa9842bcea267c87cbba5, type: 2}
      propertyPath: m_LocalPosition.z
      value: 1.3171759
      objectReference: {fileID: 0}
    - target: {fileID: 4337036896296062, guid: f4c6a7c4d2efa9842bcea267c87cbba5, type: 2}
      propertyPath: m_LocalRotation.x
      value: -0
      objectReference: {fileID: 0}
    - target: {fileID: 4337036896296062, guid: f4c6a7c4d2efa9842bcea267c87cbba5, type: 2}
      propertyPath: m_LocalRotation.y
      value: -0
      objectReference: {fileID: 0}
    - target: {fileID: 4337036896296062, guid: f4c6a7c4d2efa9842bcea267c87cbba5, type: 2}
      propertyPath: m_LocalRotation.z
      value: -0
      objectReference: {fileID: 0}
    - target: {fileID: 4337036896296062, guid: f4c6a7c4d2efa9842bcea267c87cbba5, type: 2}
      propertyPath: m_LocalRotation.w
      value: 1
      objectReference: {fileID: 0}
    - target: {fileID: 4337036896296062, guid: f4c6a7c4d2efa9842bcea267c87cbba5, type: 2}
      propertyPath: m_RootOrder
      value: 10
      objectReference: {fileID: 0}
    - target: {fileID: 1556020867057728, guid: f4c6a7c4d2efa9842bcea267c87cbba5, type: 2}
      propertyPath: m_Name
      value: Brick (10)
      objectReference: {fileID: 0}
    m_RemovedComponents: []
  m_SourcePrefab: {fileID: 100100000, guid: f4c6a7c4d2efa9842bcea267c87cbba5, type: 2}
  m_IsPrefabAsset: 0
--- !u!1 &1858343565
GameObject:
  m_ObjectHideFlags: 0
  m_CorrespondingSourceObject: {fileID: 0}
  m_PrefabInternal: {fileID: 0}
  serializedVersion: 6
  m_Component:
  - component: {fileID: 1858343566}
  - component: {fileID: 1858343568}
  - component: {fileID: 1858343567}
  m_Layer: 5
  m_Name: Fill
  m_TagString: Untagged
  m_Icon: {fileID: 0}
  m_NavMeshLayer: 0
  m_StaticEditorFlags: 0
  m_IsActive: 1
--- !u!224 &1858343566
RectTransform:
  m_ObjectHideFlags: 0
  m_CorrespondingSourceObject: {fileID: 0}
  m_PrefabInternal: {fileID: 0}
  m_GameObject: {fileID: 1858343565}
  m_LocalRotation: {x: 0, y: 0, z: 0, w: 1}
  m_LocalPosition: {x: 0, y: 0, z: 0}
  m_LocalScale: {x: 1, y: 1, z: 1}
  m_Children: []
  m_Father: {fileID: 1539021336}
  m_RootOrder: 0
  m_LocalEulerAnglesHint: {x: 0, y: 0, z: 0}
  m_AnchorMin: {x: 0, y: 0}
  m_AnchorMax: {x: 1, y: 1}
  m_AnchoredPosition: {x: 0, y: 0}
  m_SizeDelta: {x: 10, y: 0}
  m_Pivot: {x: 0.5, y: 0.5}
--- !u!114 &1858343567
MonoBehaviour:
  m_ObjectHideFlags: 0
  m_CorrespondingSourceObject: {fileID: 0}
  m_PrefabInternal: {fileID: 0}
  m_GameObject: {fileID: 1858343565}
  m_Enabled: 1
  m_EditorHideFlags: 0
  m_Script: {fileID: -765806418, guid: f70555f144d8491a825f0804e09c671c, type: 3}
  m_Name: 
  m_EditorClassIdentifier: 
  m_Material: {fileID: 0}
  m_Color: {r: 1, g: 0.15566039, b: 0.15566039, a: 1}
  m_RaycastTarget: 1
  m_OnCullStateChanged:
    m_PersistentCalls:
      m_Calls: []
    m_TypeName: UnityEngine.UI.MaskableGraphic+CullStateChangedEvent, UnityEngine.UI,
      Version=1.0.0.0, Culture=neutral, PublicKeyToken=null
  m_Sprite: {fileID: 10905, guid: 0000000000000000f000000000000000, type: 0}
  m_Type: 1
  m_PreserveAspect: 0
  m_FillCenter: 1
  m_FillMethod: 4
  m_FillAmount: 1
  m_FillClockwise: 1
  m_FillOrigin: 0
--- !u!222 &1858343568
CanvasRenderer:
  m_ObjectHideFlags: 0
  m_CorrespondingSourceObject: {fileID: 0}
  m_PrefabInternal: {fileID: 0}
  m_GameObject: {fileID: 1858343565}
  m_CullTransparentMesh: 0
--- !u!4 &1871895402 stripped
Transform:
  m_CorrespondingSourceObject: {fileID: 4337036896296062, guid: f4c6a7c4d2efa9842bcea267c87cbba5,
    type: 2}
  m_PrefabInternal: {fileID: 1564409654}
--- !u!4 &1930982836 stripped
Transform:
  m_CorrespondingSourceObject: {fileID: 4337036896296062, guid: f4c6a7c4d2efa9842bcea267c87cbba5,
    type: 2}
  m_PrefabInternal: {fileID: 1558848169}
--- !u!1001 &1958154336
Prefab:
  m_ObjectHideFlags: 0
  serializedVersion: 2
  m_Modification:
    m_TransformParent: {fileID: 1435997067}
    m_Modifications:
    - target: {fileID: 4337036896296062, guid: f4c6a7c4d2efa9842bcea267c87cbba5, type: 2}
      propertyPath: m_LocalPosition.x
      value: 8.4
      objectReference: {fileID: 0}
    - target: {fileID: 4337036896296062, guid: f4c6a7c4d2efa9842bcea267c87cbba5, type: 2}
      propertyPath: m_LocalPosition.y
      value: -18.8
      objectReference: {fileID: 0}
    - target: {fileID: 4337036896296062, guid: f4c6a7c4d2efa9842bcea267c87cbba5, type: 2}
      propertyPath: m_LocalPosition.z
      value: 1.3171759
      objectReference: {fileID: 0}
    - target: {fileID: 4337036896296062, guid: f4c6a7c4d2efa9842bcea267c87cbba5, type: 2}
      propertyPath: m_LocalRotation.x
      value: -0
      objectReference: {fileID: 0}
    - target: {fileID: 4337036896296062, guid: f4c6a7c4d2efa9842bcea267c87cbba5, type: 2}
      propertyPath: m_LocalRotation.y
      value: -0
      objectReference: {fileID: 0}
    - target: {fileID: 4337036896296062, guid: f4c6a7c4d2efa9842bcea267c87cbba5, type: 2}
      propertyPath: m_LocalRotation.z
      value: -0
      objectReference: {fileID: 0}
    - target: {fileID: 4337036896296062, guid: f4c6a7c4d2efa9842bcea267c87cbba5, type: 2}
      propertyPath: m_LocalRotation.w
      value: 1
      objectReference: {fileID: 0}
    - target: {fileID: 4337036896296062, guid: f4c6a7c4d2efa9842bcea267c87cbba5, type: 2}
      propertyPath: m_RootOrder
      value: 12
      objectReference: {fileID: 0}
    - target: {fileID: 1556020867057728, guid: f4c6a7c4d2efa9842bcea267c87cbba5, type: 2}
      propertyPath: m_Name
      value: Brick (12)
      objectReference: {fileID: 0}
    m_RemovedComponents: []
  m_SourcePrefab: {fileID: 100100000, guid: f4c6a7c4d2efa9842bcea267c87cbba5, type: 2}
  m_IsPrefabAsset: 0
--- !u!1 &2041559338
GameObject:
  m_ObjectHideFlags: 0
  m_CorrespondingSourceObject: {fileID: 0}
  m_PrefabInternal: {fileID: 0}
  serializedVersion: 6
  m_Component:
  - component: {fileID: 2041559341}
  - component: {fileID: 2041559340}
  - component: {fileID: 2041559339}
  m_Layer: 0
  m_Name: EventSystem
  m_TagString: Untagged
  m_Icon: {fileID: 0}
  m_NavMeshLayer: 0
  m_StaticEditorFlags: 0
  m_IsActive: 1
--- !u!114 &2041559339
MonoBehaviour:
  m_ObjectHideFlags: 0
  m_CorrespondingSourceObject: {fileID: 0}
  m_PrefabInternal: {fileID: 0}
  m_GameObject: {fileID: 2041559338}
  m_Enabled: 1
  m_EditorHideFlags: 0
  m_Script: {fileID: 1077351063, guid: f70555f144d8491a825f0804e09c671c, type: 3}
  m_Name: 
  m_EditorClassIdentifier: 
  m_HorizontalAxis: Horizontal
  m_VerticalAxis: Vertical
  m_SubmitButton: Submit
  m_CancelButton: Cancel
  m_InputActionsPerSecond: 10
  m_RepeatDelay: 0.5
  m_ForceModuleActive: 0
--- !u!114 &2041559340
MonoBehaviour:
  m_ObjectHideFlags: 0
  m_CorrespondingSourceObject: {fileID: 0}
  m_PrefabInternal: {fileID: 0}
  m_GameObject: {fileID: 2041559338}
  m_Enabled: 1
  m_EditorHideFlags: 0
  m_Script: {fileID: -619905303, guid: f70555f144d8491a825f0804e09c671c, type: 3}
  m_Name: 
  m_EditorClassIdentifier: 
  m_FirstSelected: {fileID: 0}
  m_sendNavigationEvents: 1
  m_DragThreshold: 10
--- !u!4 &2041559341
Transform:
  m_ObjectHideFlags: 0
  m_CorrespondingSourceObject: {fileID: 0}
  m_PrefabInternal: {fileID: 0}
  m_GameObject: {fileID: 2041559338}
  m_LocalRotation: {x: 0, y: 0, z: 0, w: 1}
  m_LocalPosition: {x: 0, y: 0, z: 0}
  m_LocalScale: {x: 1, y: 1, z: 1}
  m_Children: []
  m_Father: {fileID: 0}
  m_RootOrder: 6
  m_LocalEulerAnglesHint: {x: 0, y: 0, z: 0}
--- !u!1001 &2055177923
Prefab:
  m_ObjectHideFlags: 0
  serializedVersion: 2
  m_Modification:
    m_TransformParent: {fileID: 996062348}
    m_Modifications:
    - target: {fileID: 4856162994320406, guid: cc47a64e0f48e204aa6d7dc91b023fad, type: 2}
      propertyPath: m_LocalPosition.x
      value: 0.72
      objectReference: {fileID: 0}
    - target: {fileID: 4856162994320406, guid: cc47a64e0f48e204aa6d7dc91b023fad, type: 2}
      propertyPath: m_LocalPosition.y
      value: 12.940001
      objectReference: {fileID: 0}
    - target: {fileID: 4856162994320406, guid: cc47a64e0f48e204aa6d7dc91b023fad, type: 2}
      propertyPath: m_LocalPosition.z
      value: 0
      objectReference: {fileID: 0}
    - target: {fileID: 4856162994320406, guid: cc47a64e0f48e204aa6d7dc91b023fad, type: 2}
      propertyPath: m_LocalRotation.x
      value: -0
      objectReference: {fileID: 0}
    - target: {fileID: 4856162994320406, guid: cc47a64e0f48e204aa6d7dc91b023fad, type: 2}
      propertyPath: m_LocalRotation.y
      value: -0
      objectReference: {fileID: 0}
    - target: {fileID: 4856162994320406, guid: cc47a64e0f48e204aa6d7dc91b023fad, type: 2}
      propertyPath: m_LocalRotation.z
      value: -0
      objectReference: {fileID: 0}
    - target: {fileID: 4856162994320406, guid: cc47a64e0f48e204aa6d7dc91b023fad, type: 2}
      propertyPath: m_LocalRotation.w
      value: 1
      objectReference: {fileID: 0}
    - target: {fileID: 4856162994320406, guid: cc47a64e0f48e204aa6d7dc91b023fad, type: 2}
      propertyPath: m_RootOrder
      value: 0
      objectReference: {fileID: 0}
    m_RemovedComponents: []
  m_SourcePrefab: {fileID: 100100000, guid: cc47a64e0f48e204aa6d7dc91b023fad, type: 2}
  m_IsPrefabAsset: 0
--- !u!1001 &2064397537
Prefab:
  m_ObjectHideFlags: 0
  serializedVersion: 2
  m_Modification:
    m_TransformParent: {fileID: 1435997067}
    m_Modifications:
    - target: {fileID: 4337036896296062, guid: f4c6a7c4d2efa9842bcea267c87cbba5, type: 2}
      propertyPath: m_LocalPosition.x
      value: 8.4
      objectReference: {fileID: 0}
    - target: {fileID: 4337036896296062, guid: f4c6a7c4d2efa9842bcea267c87cbba5, type: 2}
      propertyPath: m_LocalPosition.y
      value: -12.5
      objectReference: {fileID: 0}
    - target: {fileID: 4337036896296062, guid: f4c6a7c4d2efa9842bcea267c87cbba5, type: 2}
      propertyPath: m_LocalPosition.z
      value: 1.3171759
      objectReference: {fileID: 0}
    - target: {fileID: 4337036896296062, guid: f4c6a7c4d2efa9842bcea267c87cbba5, type: 2}
      propertyPath: m_LocalRotation.x
      value: -0
      objectReference: {fileID: 0}
    - target: {fileID: 4337036896296062, guid: f4c6a7c4d2efa9842bcea267c87cbba5, type: 2}
      propertyPath: m_LocalRotation.y
      value: -0
      objectReference: {fileID: 0}
    - target: {fileID: 4337036896296062, guid: f4c6a7c4d2efa9842bcea267c87cbba5, type: 2}
      propertyPath: m_LocalRotation.z
      value: -0
      objectReference: {fileID: 0}
    - target: {fileID: 4337036896296062, guid: f4c6a7c4d2efa9842bcea267c87cbba5, type: 2}
      propertyPath: m_LocalRotation.w
      value: 1
      objectReference: {fileID: 0}
    - target: {fileID: 4337036896296062, guid: f4c6a7c4d2efa9842bcea267c87cbba5, type: 2}
      propertyPath: m_RootOrder
      value: 5
      objectReference: {fileID: 0}
    - target: {fileID: 1556020867057728, guid: f4c6a7c4d2efa9842bcea267c87cbba5, type: 2}
      propertyPath: m_Name
      value: Brick (5)
      objectReference: {fileID: 0}
    m_RemovedComponents: []
  m_SourcePrefab: {fileID: 100100000, guid: f4c6a7c4d2efa9842bcea267c87cbba5, type: 2}
  m_IsPrefabAsset: 0
--- !u!4 &2077211928 stripped
Transform:
  m_CorrespondingSourceObject: {fileID: 4337036896296062, guid: f4c6a7c4d2efa9842bcea267c87cbba5,
    type: 2}
  m_PrefabInternal: {fileID: 1373742756}
